<?xml version="1.0" encoding="UTF-8"?>
<svg width="195.51mm" height="44.405mm" version="1.1" viewBox="0 0 195.51 44.405" xmlns="http://www.w3.org/2000/svg" xmlns:cc="http://creativecommons.org/ns#" xmlns:dc="http://purl.org/dc/elements/1.1/" xmlns:rdf="http://www.w3.org/1999/02/22-rdf-syntax-ns#">
<defs>
<clipPath id="a">
<path d="M 0,765.35 H 2006.93 V 0 H 0 Z"/>
</clipPath>
</defs>
<metadata>
<rdf:RDF>
<cc:Work rdf:about="">
<dc:format>image/svg+xml</dc:format>
<dc:type rdf:resource="http://purl.org/dc/dcmitype/StillImage"/>
<dc:title/>
</cc:Work>
</rdf:RDF>
</metadata>
<g transform="translate(-8.1886 -119.16)">
<g transform="matrix(.13054 0 0 -.13054 -25.115 196.87)" clip-path="url(#a)">
<g transform="translate(996.9 483.84)">
<path d="m0 0h-7.624l17.23-52.862h6.1l17.269 52.862h-7.663l-12.692-42.659zm67.293-22.729h-19.633v17.03h22.495v5.699h-29.469v-52.862h29.85v5.7h-22.876v18.734h19.633zm40.384-30.133h7.506v0.435l-10.749 22.475c2.769 1.236 4.913 3.067 6.422 5.499 1.514 2.432 2.271 5.284 2.271 8.552 0 5.201-1.397 9.152-4.195 11.852-2.794 2.701-6.911 4.049-12.351 4.049h-15.555v-52.862h7.018v21.386h9.758zm-19.633 47.163h8.386c6.456 0 9.684-3.395 9.684-10.183 0-3.008-0.874-5.411-2.613-7.203-1.743-1.793-4.073-2.691-6.993-2.691h-8.464zm50.977-47.163c5.059 0 8.951 1.358 11.686 4.069 2.73 2.71 4.098 6.436 4.098 11.178 0 3.175-0.747 5.885-2.232 8.137-1.485 2.246-3.502 3.736-6.041 4.463 2.212 1.041 3.965 2.506 5.26 4.391 1.294 1.89 1.943 4.068 1.943 6.539 0 4.694-1.274 8.215-3.829 10.564-2.554 2.349-6.363 3.521-11.418 3.521h-15.823v-52.862zm0.307 24.727c5.641 0 8.459-3.184 8.459-9.548 0-3.003-0.772-5.333-2.325-6.993-1.548-1.656-3.648-2.486-6.29-2.486h-9.528v19.027zm-9.684 22.436h8.844c2.769 0 4.825-0.665 6.173-1.983 1.348-1.324 2.022-3.438 2.022-6.349 0-2.574-0.742-4.635-2.232-6.188-1.484-1.553-3.433-2.329-5.85-2.329h-8.957zm63.142-47.163h7.164l-17.918 52.862h-5.983l-17.879-52.862h7.169l4.308 13.831h18.753zm-13.763 43.568 7.585-24.033h-15.135zm61.995 9.294h-6.935v-40.916l-22.304 40.916h-7.013v-52.862h7.013v40.736l22.225-40.736h7.014zm23.153-52.862c6.911 0 12.185 1.905 15.819 5.719 3.633 3.814 5.45 9.216 5.45 16.209v8.859c0 6.994-1.787 12.425-5.372 16.283-3.585 3.863-8.615 5.792-15.096 5.792h-13.23v-52.862zm0.801 47.163c4.547 0 7.946-1.304 10.197-3.907 2.247-2.603 3.375-6.691 3.375-12.263v-9.377c-0.054-5.255-1.211-9.226-3.472-11.902s-5.846-4.014-10.749-4.014h-5.602v41.463zm79.117-30.353c-0.381-4.454-1.372-7.54-2.969-9.259-1.602-1.719-4.22-2.574-7.853-2.574-3.639 0-6.403 1.426-8.293 4.283-1.895 2.852-2.842 6.959-2.842 12.307v9.694c0 5.446 1.015 9.577 3.052 12.395 2.032 2.823 4.942 4.234 8.727 4.234 3.282 0 5.719-0.923 7.321-2.759 1.602-1.841 2.554-4.918 2.857-9.225h7.052c-0.254 5.689-1.846 10.06-4.781 13.108-2.935 3.047-7.087 4.576-12.449 4.576-5.816 0-10.412-1.998-13.777-5.993-3.37-3.995-5.055-9.425-5.055-16.302v-9.582c0-6.9 1.641-12.365 4.918-16.394s7.702-6.046 13.27-6.046c5.538 0 9.826 1.509 12.863 4.522 3.038 3.013 4.708 7.35 5.011 13.015zm51.479 36.052h-7.018v-22.729h-22.338v22.729h-6.974v-52.862h6.974v24.434h22.338v-24.434h7.018zm40.301-52.862h7.511v0.435l-10.749 22.475c2.769 1.236 4.908 3.067 6.422 5.499s2.271 5.284 2.271 8.552c0 5.201-1.401 9.152-4.195 11.852-2.798 2.701-6.915 4.049-12.351 4.049h-15.555v-52.862h7.013v21.386h9.763zm-19.633 47.163h8.391c6.451 0 9.679-3.395 9.679-10.183 0-3.008-0.869-5.411-2.608-7.203-1.743-1.793-4.073-2.691-6.998-2.691h-8.464zm43.28 5.699h-6.974v-52.862h6.974zm34.357-45.639c-1.548-1.499-3.863-2.246-6.935-2.246-3.306 0-5.919 0.903-7.838 2.72s-2.877 4.356-2.877 7.624h-7.013c0-3.145 0.782-5.934 2.345-8.366 1.562-2.432 3.711-4.322 6.441-5.665s5.714-2.017 8.942-2.017c5.031 0 9.006 1.289 11.931 3.868 2.921 2.578 4.381 6.007 4.381 10.295 0 4.063-1.172 7.354-3.526 9.874-2.349 2.516-6.256 4.635-11.721 6.359-3.507 1.187-6.1 2.53-7.775 4.034-1.68 1.504-2.515 3.37-2.515 5.602 0 2.715 0.772 4.825 2.325 6.329 1.548 1.504 3.736 2.256 6.554 2.256 3.101 0 5.479-0.898 7.13-2.691 1.651-1.787 2.476-4.317 2.476-7.584h7.018c0 2.95-0.689 5.66-2.061 8.127-1.372 2.466-3.331 4.39-5.87 5.772-2.54 1.382-5.441 2.076-8.693 2.076-4.752 0-8.596-1.358-11.531-4.068-2.935-2.711-4.405-6.159-4.405-10.349 0-2.418 0.518-4.566 1.548-6.442 1.026-1.875 2.579-3.545 4.649-5.011 2.071-1.465 5.065-2.861 8.977-4.195 3.912-1.328 6.622-2.695 8.121-4.102 1.5-1.402 2.247-3.423 2.247-6.061 0-2.593-0.772-4.634-2.325-6.139m48.237 45.639h-36.14v-5.699h14.564v-47.163h6.974v47.163h14.602zm12.478 0h-7.013v-52.862h28.78v5.7h-21.767zm34.626 0h-6.974v-52.862h6.974zm35.695-36.052c-0.381-4.454-1.372-7.54-2.974-9.259s-4.22-2.574-7.853-2.574c-3.634 0-6.398 1.426-8.293 4.283-1.89 2.852-2.837 6.959-2.837 12.307v9.694c0 5.446 1.015 9.577 3.047 12.395 2.032 2.823 4.942 4.234 8.732 4.234 3.277 0 5.719-0.923 7.316-2.759 1.602-1.841 2.554-4.918 2.862-9.225h7.052c-0.254 5.689-1.851 10.06-4.786 13.108-2.935 3.047-7.082 4.576-12.444 4.576-5.821 0-10.417-1.998-13.782-5.993-3.369-3.995-5.05-9.425-5.05-16.302v-9.582c0-6.9 1.636-12.365 4.918-16.394 3.277-4.029 7.697-6.046 13.265-6.046 5.538 0 9.831 1.509 12.863 4.522 3.038 3.013 4.708 7.35 5.016 13.015zm50.102 36.052h-7.013v-22.729h-22.338v22.729h-6.979v-52.862h6.979v24.434h22.338v-24.434h7.013zm35.959-22.729h-19.632v17.03h22.494v5.699h-29.469v-52.862h29.85v5.7h-22.875v18.734h19.632zm37.449-30.133h7.511v0.435l-10.749 22.475c2.769 1.236 4.908 3.067 6.422 5.499 1.509 2.432 2.266 5.284 2.266 8.552 0 5.201-1.397 9.152-4.19 11.852-2.799 2.701-6.916 4.049-12.351 4.049h-15.555v-52.862h7.013v21.386h9.758zm-19.633 47.163h8.385c6.457 0 9.685-3.395 9.685-10.183 0-3.008-0.869-5.411-2.613-7.203-1.739-1.793-4.073-2.691-6.993-2.691h-8.464zm-713.84-114.4c5.109 0.098 9.064 1.519 11.873 4.269 2.808 2.744 4.214 6.661 4.214 11.74 0 4.889-1.475 8.806-4.419 11.746-2.95 2.94-7.004 4.415-12.161 4.415h-17.689v-52.862h6.974v20.692zm-11.208 26.465h10.749c2.974 0 5.314-0.957 7.018-2.871 1.7-1.915 2.554-4.464 2.554-7.638 0-3.297-0.83-5.832-2.481-7.599-1.65-1.773-4.029-2.657-7.125-2.657h-10.715zm60.661-18.113h-18.753v18.113h21.918v5.705h-28.893v-52.862h6.975v23.344h18.753zm35.769-29.044h7.169l-17.919 52.862h-5.982l-17.88-52.862h7.165l4.307 13.831h18.759zm-13.758 43.563 7.585-24.033h-15.135zm38.171-43.563c6.911 0 12.185 1.905 15.819 5.714 3.633 3.814 5.45 9.216 5.45 16.214v8.859c0 6.994-1.792 12.42-5.372 16.283-3.585 3.858-8.62 5.792-15.101 5.792h-13.225v-52.862zm0.796 47.157c4.552 0 7.951-1.299 10.198-3.902 2.251-2.608 3.374-6.695 3.374-12.268v-9.372c-0.048-5.259-1.206-9.225-3.467-11.901-2.261-2.677-5.846-4.015-10.749-4.015h-5.607v41.458zm54.337-18.113h-18.754v18.113h21.919v5.705h-28.898v-52.862h6.979v23.344h18.754zm16.717 23.818h-6.974v-52.862h6.974zm46.928 0h-6.935v-40.921l-22.304 40.921h-7.013v-52.862h7.013v40.735l22.226-40.735h7.013zm22.954-52.862c6.91 0 12.184 1.905 15.818 5.714 3.633 3.814 5.45 9.216 5.45 16.214v8.859c0 6.994-1.787 12.42-5.372 16.283-3.585 3.858-8.615 5.792-15.096 5.792h-13.23v-52.862zm0.8 47.157c4.547 0 7.946-1.299 10.198-3.902 2.246-2.608 3.374-6.695 3.374-12.268v-9.372c-0.053-5.259-1.211-9.225-3.472-11.901-2.261-2.677-5.846-4.015-10.749-4.015h-5.602v41.458zm56.383-17.024h-19.632v17.024h22.489v5.705h-29.468v-52.862h29.849v5.699h-22.87v18.734h19.632zm38.616-30.133h7.511v0.435l-10.749 22.47c2.769 1.235 4.908 3.072 6.422 5.504 1.509 2.432 2.266 5.279 2.266 8.546 0 5.206-1.397 9.157-4.19 11.858-2.799 2.696-6.915 4.049-12.351 4.049h-15.555v-52.862h7.013v21.381h9.758zm-19.633 47.157h8.386c6.456 0 9.684-3.394 9.684-10.182 0-3.009-0.869-5.406-2.613-7.204-1.738-1.792-4.073-2.691-6.993-2.691h-8.464zm44.452 5.705h-6.974v-52.862h6.974zm49.858 0h-6.935v-40.921l-22.299 40.921h-7.018v-52.862h7.018v40.735l22.221-40.735h7.013zm46.777 0h-6.935v-40.921l-22.304 40.921h-7.013v-52.862h7.013v40.735l22.226-40.735h7.013zm37.131-22.729h-19.628v17.024h22.49v5.705h-29.469v-52.862h29.85v5.699h-22.871v18.734h19.628zm48.227 22.729h-6.94v-40.921l-22.299 40.921h-7.013v-52.862h7.013v40.735l22.226-40.735h7.013zm58.58 0v-37.297c0-3.556-0.796-6.208-2.383-7.961s-4.161-2.632-7.716-2.632c-3.536 0-6.095 0.879-7.682 2.632-1.588 1.753-2.384 4.405-2.384 7.961v37.297h-6.94v-37.581c0.054-5.128 1.529-9.079 4.425-11.853 2.896-2.769 7.091-4.156 12.581-4.156 5.362 0 9.542 1.417 12.541 4.249 2.999 2.833 4.522 6.75 4.571 11.76v37.581zm51.284 0h-6.935v-40.921l-22.304 40.921h-7.013v-52.862h7.013v40.735l22.226-40.735h7.013zm23.154-52.862c6.911 0 12.185 1.905 15.819 5.714 3.633 3.814 5.45 9.216 5.45 16.214v8.859c0 6.994-1.788 12.42-5.372 16.283-3.585 3.858-8.615 5.792-15.096 5.792h-13.23v-52.862zm0.801 47.157c4.547 0 7.946-1.299 10.197-3.902 2.247-2.608 3.375-6.695 3.375-12.268v-9.372c-0.054-5.259-1.211-9.225-3.472-11.901-2.262-2.677-5.846-4.015-10.749-4.015h-5.602v41.458zm-687.8-114.4c5.109 0.097 9.064 1.519 11.873 4.268 2.808 2.745 4.214 6.661 4.214 11.741 0 4.888-1.475 8.805-4.419 11.745-2.95 2.94-7.004 4.415-12.161 4.415h-17.689v-52.862h6.974v20.693zm-11.208 26.465h10.749c2.974 0 5.314-0.958 7.018-2.872 1.7-1.914 2.554-4.464 2.554-7.638 0-3.297-0.83-5.831-2.481-7.599-1.65-1.773-4.029-2.657-7.125-2.657h-10.715zm60.661-18.114h-18.753v18.114h21.918v5.704h-28.893v-52.862h6.975v23.345h18.753zm35.769-29.044h7.169l-17.919 52.862h-5.982l-17.88-52.862h7.165l4.307 13.831h18.759zm-13.758 43.563 7.585-24.033h-15.135zm38.171-43.563c6.911 0 12.185 1.905 15.819 5.714 3.633 3.814 5.45 9.216 5.45 16.214v8.859c0 6.994-1.792 12.42-5.372 16.283-3.585 3.858-8.62 5.792-15.101 5.792h-13.225v-52.862zm0.796 47.158c4.552 0 7.951-1.299 10.198-3.902 2.251-2.608 3.374-6.696 3.374-12.268v-9.372c-0.048-5.26-1.206-9.226-3.467-11.902s-5.846-4.014-10.749-4.014h-5.607v41.458zm54.337-18.114h-18.754v18.114h21.919v5.704h-28.898v-52.862h6.979v23.345h18.754zm16.717 23.818h-6.974v-52.862h6.974zm46.928 0h-6.935v-40.921l-22.304 40.921h-7.013v-52.862h7.013v40.736l22.226-40.736h7.013zm22.954-52.862c6.91 0 12.184 1.905 15.818 5.714 3.633 3.814 5.45 9.216 5.45 16.214v8.859c0 6.994-1.787 12.42-5.372 16.283-3.585 3.858-8.615 5.792-15.096 5.792h-13.23v-52.862zm0.8 47.158c4.547 0 7.946-1.299 10.198-3.902 2.246-2.608 3.374-6.696 3.374-12.268v-9.372c-0.053-5.26-1.211-9.226-3.472-11.902s-5.846-4.014-10.749-4.014h-5.602v41.458zm56.383-17.025h-19.632v17.025h22.489v5.704h-29.468v-52.862h29.849v5.7h-22.87v18.734h19.632zm38.616-30.133h7.511v0.435l-10.749 22.47c2.769 1.236 4.908 3.072 6.422 5.504 1.509 2.432 2.266 5.279 2.266 8.547 0 5.206-1.397 9.157-4.19 11.857-2.799 2.696-6.915 4.049-12.351 4.049h-15.555v-52.862h7.013v21.381h9.758zm-19.633 47.158h8.386c6.456 0 9.684-3.395 9.684-10.183 0-3.008-0.869-5.406-2.613-7.203-1.738-1.793-4.073-2.691-6.993-2.691h-8.464z" fill="#fff"/>
</g>
<g transform="translate(746.69 440.65)">
<path d="m0 0s2.652-3.306 12.356-12.698c1.944 4.982 14.124 37.273 15.784 43.339 1.665 6.085 4.982 25.664-1.094 46.913-6.1 21.264-27.046 49.12-27.046 49.12h-0.22s-20.927-27.856-27.002-49.12c-6.11-21.249-2.789-40.828-1.118-46.913 1.65-6.066 13.84-38.357 15.789-43.339 9.694 9.392 12.331 12.698 12.331 12.698zm0-145.94c2.12 3.883 10.5 9.274 15.061 18.529-15.632 26.909-11.462 58.502-11.462 58.502l15.13 1.109 2.755 4.132-4.127 4.917-12.932 0.284c0.283 13.411 5.787 36.174 5.787 36.174l-10.212 10.138h-0.22l-10.192-10.138s5.509-22.763 5.768-36.174l-12.923-0.284-4.117-4.917 2.75-4.132 15.115-1.109s4.19-31.593-11.452-58.502c4.551-9.255 12.956-14.646 15.051-18.529zm-81.378 21.933c3.023-7.116 18.041-25.469 39.06-15.33 34.108 16.429 29.987 63.039 29.987 63.039s-1.656-0.288-6.325-0.288c-5.235-22.451-17.337-35.353-32.467-35.06-15.12 0.259-23.657 13.415-23.383 29.864-14.842-16.717-9.905-35.085-6.872-42.225m6.833 125.49c43.431-0.987 56.817-52.339 56.817-52.339s1.954 0.127 4.024 0.127c-2.749 20.145-12.165 59.669-33.385 79.575-21.215 19.882-43.646 16.771-63.181 7.785-20.902-9.587-27.662-38.87-15.687-58.019 11.98-19.139 21.665-23.32 36.16-26.792-1.719 2.129-10.442 13.616-8.703 26.792 0.268 10.876 10.471 23.178 23.955 22.871m74.545 137.67s12.756-14.934 27.578-40.935c14.144-24.79 11.121-55.391 11.121-59.001 0-3.599-1.026-4.629-0.259-5.401 0.786-0.772 0.786 0.249 4.141 3.341 20.942 20.355 52.945 14.983 63.899 10.46 12.161-5.015 32.101-18.348 32.736-43.865 1.25-49.712-44.672-61.345-54.498-60.881-11.545 0.562-4.888 10.612-3.262 12.795 4.732 6.364 9.313 14.842 7.804 24.522-1.123 7.189-9.997 15.222-23.657 11.31-35.441-10.153-39.055-45.804-39.055-45.804l5.694-9.777s-3.101-3.605-5.694-7.722c3.096-19.593 12.937-32.98 27.403-30.67 14.48 2.335 10.607 24.492 10.09 28.331-0.518 3.883 2.231 13.933 16.712 6.73 47.304-24.282 69.632 10.173 65.749 34.245-4.722 29.292 0.088 50.512 0.865 59.977 0.918 11.232-1.739 27.349-14.309 35.847-20.927 14.182-35.417 6.446-51.959 0.273-16.541-6.188-16.541 10.036-14.47 15.193 2.066 5.148 6.207 19.057 6.705 30.143 0.518 11.081-5.938 23.183-16.531 31.163-10.603 7.985-27.662 7.213-33.351 5.67-5.69-1.553-23.452-2.344-23.452-2.344h-0.22s-17.738 0.791-23.437 2.344c-5.684 1.543-22.748 2.315-33.341-5.67-10.603-7.98-17.069-20.082-16.551-31.163 0.518-11.086 4.659-24.995 6.715-30.143 2.085-5.157 2.085-21.381-14.471-15.193-16.551 6.173-31.021 13.909-51.958-0.273-12.57-8.498-15.227-24.615-14.304-35.847 0.781-9.465 5.582-30.685 0.864-59.977-3.877-24.072 18.446-58.527 65.76-34.245 14.48 7.203 17.225-2.847 16.707-6.73-0.513-3.839-4.405-25.996 10.075-28.331 14.481-2.31 24.302 11.077 27.403 30.67-2.583 4.117-5.68 7.722-5.68 7.722l5.68 9.777s-3.614 35.651-39.05 45.804c-13.655 3.912-22.534-4.121-23.657-11.31-1.514-9.68 3.077-18.158 7.814-24.522 1.631-2.183 8.278-12.233-3.282-12.795-9.816-0.464-55.733 11.169-54.488 60.881 0.635 25.517 20.58 38.85 32.736 43.865 10.959 4.523 42.967 9.895 63.899-10.46 3.36-3.092 3.36-4.113 4.136-3.341 0.772 0.772-0.259 1.802-0.259 5.401 0 3.61-3.008 34.211 11.12 59.001 14.808 26.001 27.569 40.935 27.569 40.935zm-0.22-300.24c-5.303 9.118-16.756 19.134-21.029 26.304-11.521-10.867-24.194-17.704-41.864-13.743-17.664 3.951-44.178 32.14-20.76 69.559-30.914-7.501-44.618-3.331-54.332 3.951-9.733 7.257-20.238 20.712-17.586 42.195 2.881 23.428 3.472 28.819-0.665 60.158-3.74 28.375 25.01 67.42 76.675 44.413 3.648-1.758 5.69-1.294 4.816 2.222-0.889 3.521-9.685 24.253-7.355 38.113 2.427 14.524 8.834 32.14 36.442 40.931 14.519 4.634 29.268-2.237 45.658-1.998h0.22c16.414-0.239 31.163 6.632 45.682 1.998 27.599-8.791 34.011-26.407 36.438-40.931 2.31-13.86-6.471-34.592-7.355-38.113-0.879-3.516 1.158-3.98 4.825-2.222 51.656 23.007 80.406-16.038 76.651-44.413-4.122-31.339-3.536-36.73-0.66-60.158 2.652-21.483-7.843-34.938-17.581-42.195-9.719-7.282-23.423-11.452-54.332-3.951 23.413-37.419-3.091-65.608-20.761-69.559-17.659-3.961-30.337 2.876-41.868 13.743-4.263-7.17-15.716-17.186-21.039-26.304zm74.512 79.312c0.283-16.449-8.244-29.605-23.369-29.864-15.13-0.293-27.247 12.609-32.467 35.06-4.674 0-6.32 0.288-6.32 0.288s-4.127-46.61 29.981-63.039c21.005-10.139 36.038 8.214 39.056 15.33 3.032 7.14 7.98 25.508-6.881 42.225m24.013 60.392c1.738-13.176-6.999-24.663-8.688-26.792 14.47 3.472 24.15 7.653 36.12 26.792 11.989 19.149 5.23 48.432-15.677 58.019-19.52 8.986-41.956 12.097-63.171-7.785-21.22-19.906-30.641-59.43-33.39-79.575 2.07 0 4.029-0.127 4.029-0.127s13.391 51.352 56.807 52.339c13.504 0.307 23.691-11.995 23.97-22.871" fill="#fff"/>
</g>
<g transform="translate(383.05 388.49)">
<path d="m0 0c8.971 0 14.768 2.447 20.873 5.587 0.992 0.508 1.871 1.294 1.871 1.294 3.101 2.252 3.018 6.652 1.338 8.542 0 0-1.197 1.289-1.959 2.022-0.522 0.508-1.914 1.714-2.461 2.236-0.733 0.699-2.129 1.597-4.923 1.143-2.285-0.371-4.639-1.987-6.271-2.622-2.52-0.982-5.533-1.744-8.654-1.744-6.788 0-11.975 2.442-15.564 7.336-3.59 4.888-5.387 12.311-5.387 22.26v3.311c0.059 9.836 1.89 17.171 5.509 22.006 3.624 4.835 8.766 7.252 15.442 7.252 2.823 0 5.314-0.508 7.595-1.489 1.475-0.635 4.962-2.369 7.062-2.369 2.329 0 4.024 1.592 4.258 1.841 0.498 0.518 1.343 1.412 1.817 1.925 0.693 0.757 2.408 2.632 2.408 2.632 1.518 1.89 2.251 5.289-1.099 7.819 0 0-0.845 0.81-2.305 1.626-5.539 3.091-11.858 4.557-19.57 4.557-12.893 0-23.065-4.2-30.528-12.596-7.467-8.4-11.198-19.583-11.198-33.546v-2.12c0-14.641 3.755-26.123 11.281-34.435 7.521-8.312 17.694-12.468 30.533-12.468zm111 82.433c6.363-8.341 9.542-19.916 9.542-34.733v-1.27c0-14.197-3.223-25.517-9.669-33.971-6.442-8.454-15.096-12.678-25.953-12.678-10.065 0-18.123 3.306-24.169 9.923v-36.11l-1.558 115.32 1.558-115.82-0.02-0.386c0-3.531-2.534-6.495-6.158-6.495l-8.254-0.02c-3.638 0-6.241 2.96-6.241 6.745l0.058 115.31c0 2.881 2.042 4.996 4.997 4.996 0 0 9.835 0.01 9.889 0.01 2.535 0 4.386-1.793 4.576-4.923l0.386-4.415c6.051 7.35 14.28 11.022 24.682 11.022 11.194 0 19.975-4.165 26.334-12.507m-16.537-58.268c3.702 5.289 5.553 13.304 5.553 24.048 0 9.157-1.822 16.424-5.47 21.796-3.643 5.372-8.864 8.053-15.647 8.053-8.425 0-14.476-3.472-18.148-10.427v-40.71c3.726-7.126 9.836-10.691 18.319-10.691 6.558 0 11.686 2.642 15.393 7.931m-181.43 6.631c0.352 1.187 17.152 56.945 17.606 58.312 0.601 1.837 1.49 5.563 6.422 5.563h10.28c4.674 0 5.631-3.629 4.572-6.652l-29.147-82.882c-0.713-1.973-3.091-4.048-5.626-4.048h-9.909c-2.539 0-4.913 2.075-5.631 4.048l-29.146 82.882c-1.06 3.023-0.098 6.652 4.571 6.652h10.281c4.932 0 5.821-3.726 6.427-5.563 0.449-1.367 17.254-57.135 17.601-58.312 0.346-1.177 1.347-1.186 1.699 0" fill="#fff"/>
</g>
</g>
</g>
</svg>
